{
  "type": "minecraft:crafting_shaped",
  "pattern": [
    "OOO",
    "OIO",
    "OOO"
    ],
  "key": {
    "O": { "item":  "minecraft:obsidian" },
    "I": { "item":  "turtorialmodhase:turtorial_item" }
  },
  "result": { "item":  "turtorialmodhase:turtorial_block" }
}